{
  "type": "postgres",
  "host": "127.0.0.1",
  "port": 5432,
  "username": "postgres",
  "password": "1234567890",
  "database": "nest_awesome",
  "entities": [
    "dist/**/*.entity{.ts,.js}"
  ],
  "migrationsTableName": "migration",
  "migrations": [
    "src/migration/*.ts"
  ],
  "cli": {
    "migrationsDir": "src/migration"
  },
  "ssl": false
}